-- Merging decision tree log ---
manifest
ADDED from /home/vsharko/Projekti/AndroidStudioProjects/xox/app/src/main/AndroidManifest.xml:2:1-22:12
INJECTED from /home/vsharko/Projekti/AndroidStudioProjects/xox/app/src/main/AndroidManifest.xml:2:1-22:12
INJECTED from /home/vsharko/Projekti/AndroidStudioProjects/xox/app/src/main/AndroidManifest.xml:2:1-22:12
INJECTED from /home/vsharko/Projekti/AndroidStudioProjects/xox/app/src/main/AndroidManifest.xml:2:1-22:12
MERGED from [com.android.support:appcompat-v7:25.3.0] /home/vsharko/.gradle/caches/transforms-1/files-1.1/appcompat-v7-25.3.0.aar/418a5d95cc9272b1a1c749b24f3a694e/AndroidManifest.xml:17:1-31:12
MERGED from [com.android.support.constraint:constraint-layout:1.0.2] /home/vsharko/.gradle/caches/transforms-1/files-1.1/constraint-layout-1.0.2.aar/8aef590c1acf8f683f8c3528de58d8a1/AndroidManifest.xml:2:1-11:12
MERGED from [com.android.support:animated-vector-drawable:25.3.0] /home/vsharko/.gradle/caches/transforms-1/files-1.1/animated-vector-drawable-25.3.0.aar/ce291155611aa66ebd11dadb264c7e56/AndroidManifest.xml:17:1-28:12
MERGED from [com.android.support:support-vector-drawable:25.3.0] /home/vsharko/.gradle/caches/transforms-1/files-1.1/support-vector-drawable-25.3.0.aar/f5f1903f05edac5701223877720dbaa3/AndroidManifest.xml:17:1-28:12
MERGED from [com.android.support:support-v4:25.3.0] /home/vsharko/.gradle/caches/transforms-1/files-1.1/support-v4-25.3.0.aar/0acc91445e30791efe7003fa71806bc5/AndroidManifest.xml:17:1-31:12
MERGED from [com.android.support:support-fragment:25.3.0] /home/vsharko/.gradle/caches/transforms-1/files-1.1/support-fragment-25.3.0.aar/566bf6942df708d50458849bdcc08077/AndroidManifest.xml:17:1-31:12
MERGED from [com.android.support:support-media-compat:25.3.0] /home/vsharko/.gradle/caches/transforms-1/files-1.1/support-media-compat-25.3.0.aar/dff71159f6de2e2db8e7508817e88abd/AndroidManifest.xml:17:1-31:12
MERGED from [com.android.support:support-core-utils:25.3.0] /home/vsharko/.gradle/caches/transforms-1/files-1.1/support-core-utils-25.3.0.aar/06ea9da44faacdbcf74db624ac5c61ed/AndroidManifest.xml:17:1-31:12
MERGED from [com.android.support:support-core-ui:25.3.0] /home/vsharko/.gradle/caches/transforms-1/files-1.1/support-core-ui-25.3.0.aar/10b92421dc8e547c7a4c1dbfb730627d/AndroidManifest.xml:17:1-31:12
MERGED from [com.android.support:support-compat:25.3.0] /home/vsharko/.gradle/caches/transforms-1/files-1.1/support-compat-25.3.0.aar/5cca8c7b6914b98660947d8cf5525c69/AndroidManifest.xml:17:1-31:12
INJECTED from /home/vsharko/Projekti/AndroidStudioProjects/xox/app/src/main/AndroidManifest.xml:2:1-22:12
INJECTED from /home/vsharko/Projekti/AndroidStudioProjects/xox/app/src/main/AndroidManifest.xml:2:1-22:12
INJECTED from /home/vsharko/Projekti/AndroidStudioProjects/xox/app/src/main/AndroidManifest.xml:2:1-22:12
	package
		ADDED from /home/vsharko/Projekti/AndroidStudioProjects/xox/app/src/main/AndroidManifest.xml:3:5-38
		INJECTED from /home/vsharko/Projekti/AndroidStudioProjects/xox/app/src/main/AndroidManifest.xml
		INJECTED from /home/vsharko/Projekti/AndroidStudioProjects/xox/app/src/main/AndroidManifest.xml
	android:versionName
		INJECTED from /home/vsharko/Projekti/AndroidStudioProjects/xox/app/src/main/AndroidManifest.xml
		ADDED from /home/vsharko/Projekti/AndroidStudioProjects/xox/app/src/main/AndroidManifest.xml:2:1-22:12
		INJECTED from /home/vsharko/Projekti/AndroidStudioProjects/xox/app/src/main/AndroidManifest.xml
	android:versionCode
		INJECTED from /home/vsharko/Projekti/AndroidStudioProjects/xox/app/src/main/AndroidManifest.xml
		ADDED from /home/vsharko/Projekti/AndroidStudioProjects/xox/app/src/main/AndroidManifest.xml:2:1-22:12
		INJECTED from /home/vsharko/Projekti/AndroidStudioProjects/xox/app/src/main/AndroidManifest.xml
	xmlns:android
		ADDED from /home/vsharko/Projekti/AndroidStudioProjects/xox/app/src/main/AndroidManifest.xml:2:11-69
application
ADDED from /home/vsharko/Projekti/AndroidStudioProjects/xox/app/src/main/AndroidManifest.xml:5:5-20:19
MERGED from [com.android.support:appcompat-v7:25.3.0] /home/vsharko/.gradle/caches/transforms-1/files-1.1/appcompat-v7-25.3.0.aar/418a5d95cc9272b1a1c749b24f3a694e/AndroidManifest.xml:29:5-20
MERGED from [com.android.support:appcompat-v7:25.3.0] /home/vsharko/.gradle/caches/transforms-1/files-1.1/appcompat-v7-25.3.0.aar/418a5d95cc9272b1a1c749b24f3a694e/AndroidManifest.xml:29:5-20
MERGED from [com.android.support.constraint:constraint-layout:1.0.2] /home/vsharko/.gradle/caches/transforms-1/files-1.1/constraint-layout-1.0.2.aar/8aef590c1acf8f683f8c3528de58d8a1/AndroidManifest.xml:9:5-20
MERGED from [com.android.support.constraint:constraint-layout:1.0.2] /home/vsharko/.gradle/caches/transforms-1/files-1.1/constraint-layout-1.0.2.aar/8aef590c1acf8f683f8c3528de58d8a1/AndroidManifest.xml:9:5-20
MERGED from [com.android.support:animated-vector-drawable:25.3.0] /home/vsharko/.gradle/caches/transforms-1/files-1.1/animated-vector-drawable-25.3.0.aar/ce291155611aa66ebd11dadb264c7e56/AndroidManifest.xml:26:5-20
MERGED from [com.android.support:animated-vector-drawable:25.3.0] /home/vsharko/.gradle/caches/transforms-1/files-1.1/animated-vector-drawable-25.3.0.aar/ce291155611aa66ebd11dadb264c7e56/AndroidManifest.xml:26:5-20
MERGED from [com.android.support:support-vector-drawable:25.3.0] /home/vsharko/.gradle/caches/transforms-1/files-1.1/support-vector-drawable-25.3.0.aar/f5f1903f05edac5701223877720dbaa3/AndroidManifest.xml:26:5-20
MERGED from [com.android.support:support-vector-drawable:25.3.0] /home/vsharko/.gradle/caches/transforms-1/files-1.1/support-vector-drawable-25.3.0.aar/f5f1903f05edac5701223877720dbaa3/AndroidManifest.xml:26:5-20
MERGED from [com.android.support:support-v4:25.3.0] /home/vsharko/.gradle/caches/transforms-1/files-1.1/support-v4-25.3.0.aar/0acc91445e30791efe7003fa71806bc5/AndroidManifest.xml:29:5-20
MERGED from [com.android.support:support-v4:25.3.0] /home/vsharko/.gradle/caches/transforms-1/files-1.1/support-v4-25.3.0.aar/0acc91445e30791efe7003fa71806bc5/AndroidManifest.xml:29:5-20
MERGED from [com.android.support:support-fragment:25.3.0] /home/vsharko/.gradle/caches/transforms-1/files-1.1/support-fragment-25.3.0.aar/566bf6942df708d50458849bdcc08077/AndroidManifest.xml:29:5-20
MERGED from [com.android.support:support-fragment:25.3.0] /home/vsharko/.gradle/caches/transforms-1/files-1.1/support-fragment-25.3.0.aar/566bf6942df708d50458849bdcc08077/AndroidManifest.xml:29:5-20
MERGED from [com.android.support:support-media-compat:25.3.0] /home/vsharko/.gradle/caches/transforms-1/files-1.1/support-media-compat-25.3.0.aar/dff71159f6de2e2db8e7508817e88abd/AndroidManifest.xml:29:5-20
MERGED from [com.android.support:support-media-compat:25.3.0] /home/vsharko/.gradle/caches/transforms-1/files-1.1/support-media-compat-25.3.0.aar/dff71159f6de2e2db8e7508817e88abd/AndroidManifest.xml:29:5-20
MERGED from [com.android.support:support-core-utils:25.3.0] /home/vsharko/.gradle/caches/transforms-1/files-1.1/support-core-utils-25.3.0.aar/06ea9da44faacdbcf74db624ac5c61ed/AndroidManifest.xml:29:5-20
MERGED from [com.android.support:support-core-utils:25.3.0] /home/vsharko/.gradle/caches/transforms-1/files-1.1/support-core-utils-25.3.0.aar/06ea9da44faacdbcf74db624ac5c61ed/AndroidManifest.xml:29:5-20
MERGED from [com.android.support:support-core-ui:25.3.0] /home/vsharko/.gradle/caches/transforms-1/files-1.1/support-core-ui-25.3.0.aar/10b92421dc8e547c7a4c1dbfb730627d/AndroidManifest.xml:29:5-20
MERGED from [com.android.support:support-core-ui:25.3.0] /home/vsharko/.gradle/caches/transforms-1/files-1.1/support-core-ui-25.3.0.aar/10b92421dc8e547c7a4c1dbfb730627d/AndroidManifest.xml:29:5-20
MERGED from [com.android.support:support-compat:25.3.0] /home/vsharko/.gradle/caches/transforms-1/files-1.1/support-compat-25.3.0.aar/5cca8c7b6914b98660947d8cf5525c69/AndroidManifest.xml:29:5-20
MERGED from [com.android.support:support-compat:25.3.0] /home/vsharko/.gradle/caches/transforms-1/files-1.1/support-compat-25.3.0.aar/5cca8c7b6914b98660947d8cf5525c69/AndroidManifest.xml:29:5-20
	android:supportsRtl
		ADDED from /home/vsharko/Projekti/AndroidStudioProjects/xox/app/src/main/AndroidManifest.xml:10:9-35
	android:label
		ADDED from /home/vsharko/Projekti/AndroidStudioProjects/xox/app/src/main/AndroidManifest.xml:8:9-41
	android:roundIcon
		ADDED from /home/vsharko/Projekti/AndroidStudioProjects/xox/app/src/main/AndroidManifest.xml:9:9-54
	android:icon
		ADDED from /home/vsharko/Projekti/AndroidStudioProjects/xox/app/src/main/AndroidManifest.xml:7:9-43
	android:allowBackup
		ADDED from /home/vsharko/Projekti/AndroidStudioProjects/xox/app/src/main/AndroidManifest.xml:6:9-35
	android:theme
		ADDED from /home/vsharko/Projekti/AndroidStudioProjects/xox/app/src/main/AndroidManifest.xml:11:9-40
activity#com.example.student.xox.gameplay
ADDED from /home/vsharko/Projekti/AndroidStudioProjects/xox/app/src/main/AndroidManifest.xml:12:9-18:20
	android:name
		ADDED from /home/vsharko/Projekti/AndroidStudioProjects/xox/app/src/main/AndroidManifest.xml:12:19-43
intent-filter#android.intent.action.MAIN+android.intent.category.LAUNCHER
ADDED from /home/vsharko/Projekti/AndroidStudioProjects/xox/app/src/main/AndroidManifest.xml:13:13-17:29
action#android.intent.action.MAIN
ADDED from /home/vsharko/Projekti/AndroidStudioProjects/xox/app/src/main/AndroidManifest.xml:14:17-69
	android:name
		ADDED from /home/vsharko/Projekti/AndroidStudioProjects/xox/app/src/main/AndroidManifest.xml:14:25-66
category#android.intent.category.LAUNCHER
ADDED from /home/vsharko/Projekti/AndroidStudioProjects/xox/app/src/main/AndroidManifest.xml:16:17-77
	android:name
		ADDED from /home/vsharko/Projekti/AndroidStudioProjects/xox/app/src/main/AndroidManifest.xml:16:27-74
activity#com.example.student.xox.MainActivity
ADDED from /home/vsharko/Projekti/AndroidStudioProjects/xox/app/src/main/AndroidManifest.xml:19:9-59
	android:name
		ADDED from /home/vsharko/Projekti/AndroidStudioProjects/xox/app/src/main/AndroidManifest.xml:19:19-47
uses-sdk
INJECTED from /home/vsharko/Projekti/AndroidStudioProjects/xox/app/src/main/AndroidManifest.xml reason: use-sdk injection requested
INJECTED from /home/vsharko/Projekti/AndroidStudioProjects/xox/app/src/main/AndroidManifest.xml
INJECTED from /home/vsharko/Projekti/AndroidStudioProjects/xox/app/src/main/AndroidManifest.xml
MERGED from [com.android.support:appcompat-v7:25.3.0] /home/vsharko/.gradle/caches/transforms-1/files-1.1/appcompat-v7-25.3.0.aar/418a5d95cc9272b1a1c749b24f3a694e/AndroidManifest.xml:21:5-23:78
MERGED from [com.android.support:appcompat-v7:25.3.0] /home/vsharko/.gradle/caches/transforms-1/files-1.1/appcompat-v7-25.3.0.aar/418a5d95cc9272b1a1c749b24f3a694e/AndroidManifest.xml:21:5-23:78
MERGED from [com.android.support.constraint:constraint-layout:1.0.2] /home/vsharko/.gradle/caches/transforms-1/files-1.1/constraint-layout-1.0.2.aar/8aef590c1acf8f683f8c3528de58d8a1/AndroidManifest.xml:5:5-7:41
MERGED from [com.android.support.constraint:constraint-layout:1.0.2] /home/vsharko/.gradle/caches/transforms-1/files-1.1/constraint-layout-1.0.2.aar/8aef590c1acf8f683f8c3528de58d8a1/AndroidManifest.xml:5:5-7:41
MERGED from [com.android.support:animated-vector-drawable:25.3.0] /home/vsharko/.gradle/caches/transforms-1/files-1.1/animated-vector-drawable-25.3.0.aar/ce291155611aa66ebd11dadb264c7e56/AndroidManifest.xml:20:5-44
MERGED from [com.android.support:animated-vector-drawable:25.3.0] /home/vsharko/.gradle/caches/transforms-1/files-1.1/animated-vector-drawable-25.3.0.aar/ce291155611aa66ebd11dadb264c7e56/AndroidManifest.xml:20:5-44
MERGED from [com.android.support:support-vector-drawable:25.3.0] /home/vsharko/.gradle/caches/transforms-1/files-1.1/support-vector-drawable-25.3.0.aar/f5f1903f05edac5701223877720dbaa3/AndroidManifest.xml:20:5-43
MERGED from [com.android.support:support-vector-drawable:25.3.0] /home/vsharko/.gradle/caches/transforms-1/files-1.1/support-vector-drawable-25.3.0.aar/f5f1903f05edac5701223877720dbaa3/AndroidManifest.xml:20:5-43
MERGED from [com.android.support:support-v4:25.3.0] /home/vsharko/.gradle/caches/transforms-1/files-1.1/support-v4-25.3.0.aar/0acc91445e30791efe7003fa71806bc5/AndroidManifest.xml:21:5-23:54
MERGED from [com.android.support:support-v4:25.3.0] /home/vsharko/.gradle/caches/transforms-1/files-1.1/support-v4-25.3.0.aar/0acc91445e30791efe7003fa71806bc5/AndroidManifest.xml:21:5-23:54
MERGED from [com.android.support:support-fragment:25.3.0] /home/vsharko/.gradle/caches/transforms-1/files-1.1/support-fragment-25.3.0.aar/566bf6942df708d50458849bdcc08077/AndroidManifest.xml:21:5-23:60
MERGED from [com.android.support:support-fragment:25.3.0] /home/vsharko/.gradle/caches/transforms-1/files-1.1/support-fragment-25.3.0.aar/566bf6942df708d50458849bdcc08077/AndroidManifest.xml:21:5-23:60
MERGED from [com.android.support:support-media-compat:25.3.0] /home/vsharko/.gradle/caches/transforms-1/files-1.1/support-media-compat-25.3.0.aar/dff71159f6de2e2db8e7508817e88abd/AndroidManifest.xml:21:5-23:63
MERGED from [com.android.support:support-media-compat:25.3.0] /home/vsharko/.gradle/caches/transforms-1/files-1.1/support-media-compat-25.3.0.aar/dff71159f6de2e2db8e7508817e88abd/AndroidManifest.xml:21:5-23:63
MERGED from [com.android.support:support-core-utils:25.3.0] /home/vsharko/.gradle/caches/transforms-1/files-1.1/support-core-utils-25.3.0.aar/06ea9da44faacdbcf74db624ac5c61ed/AndroidManifest.xml:21:5-23:61
MERGED from [com.android.support:support-core-utils:25.3.0] /home/vsharko/.gradle/caches/transforms-1/files-1.1/support-core-utils-25.3.0.aar/06ea9da44faacdbcf74db624ac5c61ed/AndroidManifest.xml:21:5-23:61
MERGED from [com.android.support:support-core-ui:25.3.0] /home/vsharko/.gradle/caches/transforms-1/files-1.1/support-core-ui-25.3.0.aar/10b92421dc8e547c7a4c1dbfb730627d/AndroidManifest.xml:21:5-23:58
MERGED from [com.android.support:support-core-ui:25.3.0] /home/vsharko/.gradle/caches/transforms-1/files-1.1/support-core-ui-25.3.0.aar/10b92421dc8e547c7a4c1dbfb730627d/AndroidManifest.xml:21:5-23:58
MERGED from [com.android.support:support-compat:25.3.0] /home/vsharko/.gradle/caches/transforms-1/files-1.1/support-compat-25.3.0.aar/5cca8c7b6914b98660947d8cf5525c69/AndroidManifest.xml:21:5-23:58
MERGED from [com.android.support:support-compat:25.3.0] /home/vsharko/.gradle/caches/transforms-1/files-1.1/support-compat-25.3.0.aar/5cca8c7b6914b98660947d8cf5525c69/AndroidManifest.xml:21:5-23:58
INJECTED from /home/vsharko/Projekti/AndroidStudioProjects/xox/app/src/main/AndroidManifest.xml
INJECTED from /home/vsharko/Projekti/AndroidStudioProjects/xox/app/src/main/AndroidManifest.xml
	tools:overrideLibrary
		ADDED from [com.android.support:appcompat-v7:25.3.0] /home/vsharko/.gradle/caches/transforms-1/files-1.1/appcompat-v7-25.3.0.aar/418a5d95cc9272b1a1c749b24f3a694e/AndroidManifest.xml:23:9-75
	android:targetSdkVersion
		INJECTED from /home/vsharko/Projekti/AndroidStudioProjects/xox/app/src/main/AndroidManifest.xml
		ADDED from /home/vsharko/Projekti/AndroidStudioProjects/xox/app/src/main/AndroidManifest.xml
		INJECTED from /home/vsharko/Projekti/AndroidStudioProjects/xox/app/src/main/AndroidManifest.xml
	android:minSdkVersion
		INJECTED from /home/vsharko/Projekti/AndroidStudioProjects/xox/app/src/main/AndroidManifest.xml
		ADDED from /home/vsharko/Projekti/AndroidStudioProjects/xox/app/src/main/AndroidManifest.xml
		INJECTED from /home/vsharko/Projekti/AndroidStudioProjects/xox/app/src/main/AndroidManifest.xml
meta-data#android.support.VERSION
ADDED from [com.android.support:appcompat-v7:25.3.0] /home/vsharko/.gradle/caches/transforms-1/files-1.1/appcompat-v7-25.3.0.aar/418a5d95cc9272b1a1c749b24f3a694e/AndroidManifest.xml:25:5-27:34
MERGED from [com.android.support:animated-vector-drawable:25.3.0] /home/vsharko/.gradle/caches/transforms-1/files-1.1/animated-vector-drawable-25.3.0.aar/ce291155611aa66ebd11dadb264c7e56/AndroidManifest.xml:22:5-24:34
MERGED from [com.android.support:animated-vector-drawable:25.3.0] /home/vsharko/.gradle/caches/transforms-1/files-1.1/animated-vector-drawable-25.3.0.aar/ce291155611aa66ebd11dadb264c7e56/AndroidManifest.xml:22:5-24:34
MERGED from [com.android.support:support-vector-drawable:25.3.0] /home/vsharko/.gradle/caches/transforms-1/files-1.1/support-vector-drawable-25.3.0.aar/f5f1903f05edac5701223877720dbaa3/AndroidManifest.xml:22:5-24:34
MERGED from [com.android.support:support-vector-drawable:25.3.0] /home/vsharko/.gradle/caches/transforms-1/files-1.1/support-vector-drawable-25.3.0.aar/f5f1903f05edac5701223877720dbaa3/AndroidManifest.xml:22:5-24:34
MERGED from [com.android.support:support-v4:25.3.0] /home/vsharko/.gradle/caches/transforms-1/files-1.1/support-v4-25.3.0.aar/0acc91445e30791efe7003fa71806bc5/AndroidManifest.xml:25:5-27:34
MERGED from [com.android.support:support-v4:25.3.0] /home/vsharko/.gradle/caches/transforms-1/files-1.1/support-v4-25.3.0.aar/0acc91445e30791efe7003fa71806bc5/AndroidManifest.xml:25:5-27:34
MERGED from [com.android.support:support-fragment:25.3.0] /home/vsharko/.gradle/caches/transforms-1/files-1.1/support-fragment-25.3.0.aar/566bf6942df708d50458849bdcc08077/AndroidManifest.xml:25:5-27:34
MERGED from [com.android.support:support-fragment:25.3.0] /home/vsharko/.gradle/caches/transforms-1/files-1.1/support-fragment-25.3.0.aar/566bf6942df708d50458849bdcc08077/AndroidManifest.xml:25:5-27:34
MERGED from [com.android.support:support-media-compat:25.3.0] /home/vsharko/.gradle/caches/transforms-1/files-1.1/support-media-compat-25.3.0.aar/dff71159f6de2e2db8e7508817e88abd/AndroidManifest.xml:25:5-27:34
MERGED from [com.android.support:support-media-compat:25.3.0] /home/vsharko/.gradle/caches/transforms-1/files-1.1/support-media-compat-25.3.0.aar/dff71159f6de2e2db8e7508817e88abd/AndroidManifest.xml:25:5-27:34
MERGED from [com.android.support:support-core-utils:25.3.0] /home/vsharko/.gradle/caches/transforms-1/files-1.1/support-core-utils-25.3.0.aar/06ea9da44faacdbcf74db624ac5c61ed/AndroidManifest.xml:25:5-27:34
MERGED from [com.android.support:support-core-utils:25.3.0] /home/vsharko/.gradle/caches/transforms-1/files-1.1/support-core-utils-25.3.0.aar/06ea9da44faacdbcf74db624ac5c61ed/AndroidManifest.xml:25:5-27:34
MERGED from [com.android.support:support-core-ui:25.3.0] /home/vsharko/.gradle/caches/transforms-1/files-1.1/support-core-ui-25.3.0.aar/10b92421dc8e547c7a4c1dbfb730627d/AndroidManifest.xml:25:5-27:34
MERGED from [com.android.support:support-core-ui:25.3.0] /home/vsharko/.gradle/caches/transforms-1/files-1.1/support-core-ui-25.3.0.aar/10b92421dc8e547c7a4c1dbfb730627d/AndroidManifest.xml:25:5-27:34
MERGED from [com.android.support:support-compat:25.3.0] /home/vsharko/.gradle/caches/transforms-1/files-1.1/support-compat-25.3.0.aar/5cca8c7b6914b98660947d8cf5525c69/AndroidManifest.xml:25:5-27:34
MERGED from [com.android.support:support-compat:25.3.0] /home/vsharko/.gradle/caches/transforms-1/files-1.1/support-compat-25.3.0.aar/5cca8c7b6914b98660947d8cf5525c69/AndroidManifest.xml:25:5-27:34
	android:value
		ADDED from [com.android.support:appcompat-v7:25.3.0] /home/vsharko/.gradle/caches/transforms-1/files-1.1/appcompat-v7-25.3.0.aar/418a5d95cc9272b1a1c749b24f3a694e/AndroidManifest.xml:27:9-31
	android:name
		ADDED from [com.android.support:appcompat-v7:25.3.0] /home/vsharko/.gradle/caches/transforms-1/files-1.1/appcompat-v7-25.3.0.aar/418a5d95cc9272b1a1c749b24f3a694e/AndroidManifest.xml:26:9-47
